MA425/625: Applied Regression
…
---

`Summarize()`

```r
group_by(gapminder, continent, country) %>%
summarise(avg_le_cc = mean(lifeExp))
```

```
## # A tibble: 142 x 3
## # Groups:   continent [5]
##    continent country                  avg_le_cc
##    <fct>     <fct>                        <dbl>
##  1 Africa    Algeria                       59.0
##  2 Africa    Angola                        37.9
##  3 Africa    Benin                         48.8
##  4 Africa    Botswana                      54.6
##  5 Africa    Burkina Faso                  44.7
##  6 Africa    Burundi                       44.8
##  7 Africa    Cameroon                      48.1
##  8 Africa    Central African Republic      43.9
##  9 Africa    Chad                          46.8
## 10 Africa    Comoros                       52.4
## # ... with 132 more rows
```
…
`Summarize()`

```r
group_by(gapminder, continent, year) %>%
summarise_at(c("lifeExp", "pop"), funs(min, median, max, mean, sd, IQR))
```

```
## # A tibble: 60 x 14
## # Groups:   continent [5]
##    continent  year lifeExp_min pop_min lifeExp_median pop_median lifeExp_max
##    <fct>     <int>       <dbl>   <int>          <dbl>      <dbl>       <dbl>
##  1 Africa     1952        30     60011           38.8   2668124.        52.7
##  2 Africa     1957        31.6   61325           40.6   2885790.        58.1
##  3 Africa     1962        32.8   65345           42.6   3145210         60.2
##  4 Africa     1967        34.1   70787           44.7   3473692.        61.6
##  5 Africa     1972        35.4   76595           47.0   3945594.        64.3
##  6 Africa     1977        36.8   86796           49.3   4522666         67.1
##  7 Africa     1982        38.4   98593           50.8   5668228.        69.9
##  8 Africa     1987        39.9  110812           51.6   6635612.        71.9
##  9 Africa     1992        23.6  125911           52.4   7140388.        73.6
## 10 Africa     1997        36.1  145608           52.8   7805422.        74.8
## # ... with 50 more rows, and 7 more variables: pop_max <int>,
## #   lifeExp_mean <dbl>, pop_mean <dbl>, lifeExp_sd <dbl>, pop_sd <dbl>,
## #   lifeExp_IQR <dbl>, pop_IQR <dbl>
```
…
